[
  {
    "name": "Local HSPC dev server, oauth",
    "serviceUrl": "http://localhost:8080/hspc-reference-api/data",
    "auth": {
      "type": "oauth2"
    }
  },

  {
    "name": "Local HSPC dev server, no auth",
    "serviceUrl": "http://localhost:8080/hspc-reference-api/data",
    "auth": {
      "type": "none"
    }
  }
]